<svg xmlns="http://www.w3.org/2000/svg" width="7" height="28" viewBox="0 0 7 28">
  <g>
    <g>
      <g>
        <path fill="#3486ac" d="M3.5 0a3.5 3.5 0 1 0 0 7 3.5 3.5 0 0 0 0-7z"/>
      </g>
      <g>
        <path fill="#3486ac" d="M7 9.333H0v18.668h2.334v-7h2.333v7H7z"/>
      </g>
    </g>
  </g>
</svg>